## Title: TransportTimer
## Version: 1.0
## Author: G3m7
## Interface: 70200
##SavedVariables: TransportTimer_AuberdineTimer,TransportTimer_TheramoreTimer, TransportTimer_RatchetTimer
##SavedVariablesPerCharacter: TransportTimer_Data

Libs\LibStub\LibStub.lua
Libs\CallbackHandler-1.0\CallbackHandler-1.0.xml
Libs\HereBeDragons\HereBeDragons-2.0.lua
Libs\HereBeDragons\HereBeDragons-Pins-2.0.lua
Libs\HereBeDragons\HereBeDragons-Migrate.lua

Frame.lua